{
  "project_info": {
    "project_number": "208659623637",
    "firebase_url": "https://ledi-promoter.firebaseio.com",
    "project_id": "ledi-promoter",
    "storage_bucket": "ledi-promoter.appspot.com"
  },
  "client": [
    {
      "client_info": {
        "mobilesdk_app_id": "1:208659623637:android:4433d5ec9704ff48",
        "android_client_info": {
          "package_name": "com.ledi.promoter"
        }
      },
      "oauth_client": [
        {
          "client_id": "208659623637-l96i6toe2p0j1h7ej3sk8qq7c5j1eadu.apps.googleusercontent.com",
          "client_type": 3
        }
      ],
      "api_key": [
        {
          "current_key": "AIzaSyCOTqid4OzLWLwm0KpCCNxL693g8laXz_s"
        }
      ],
      "services": {
        "analytics_service": {
          "status": 1
        },
        "appinvite_service": {
          "status": 1,
          "other_platform_oauth_client": []
        },
        "ads_service": {
          "status": 2
        }
      }
    }
  ],
  "configuration_version": "1"
}